{
  "prod": {
    "awscloudformation": {
      "AuthRoleName": "amplify-bookstore-prod-45555-authRole",
      "UnauthRoleArn": "arn:aws:iam::471112625504:role/amplify-bookstore-prod-45555-unauthRole",
      "AuthRoleArn": "arn:aws:iam::471112625504:role/amplify-bookstore-prod-45555-authRole",
      "Region": "us-east-1",
      "DeploymentBucketName": "amplify-bookstore-prod-45555-deployment",
      "UnauthRoleName": "amplify-bookstore-prod-45555-unauthRole",
      "StackName": "amplify-bookstore-prod-45555",
      "StackId": "arn:aws:cloudformation:us-east-1:471112625504:stack/amplify-bookstore-prod-45555/ced4fa30-fa3c-11ee-9142-12462fcfe643",
      "AmplifyAppId": "d3p29bzmy5acs1"
    },
    "categories": {
      "auth": {
        "bookstorea435f2c2": {}
      },
      "function": {
        "processPayment": {
          "deploymentBucketName": "amplify-bookstore-prod-45555-deployment",
          "s3Key": "amplify-builds/processPayment-4c74732f2f356567672b-build.zip"
        },
        "createOrder": {
          "deploymentBucketName": "amplify-bookstore-prod-45555-deployment",
          "s3Key": "amplify-builds/createOrder-39534765395259515371-build.zip"
        }
      },
      "storage": {
        "bookImages": {}
      },
      "api": {
        "mybookstore": {}
      }
    }
  }
}